{
    "1" : {
        "id" : 1,
        "type" : "mysql",
        "name" : "localhost Dev #1",
        "host" : "127.0.0.1",
        "db"   : "test",
        "user" : "root",
        "pass" : "",
        "charset" : "utf8mb4",
        "isArchived" : 0

    },
    "2" : {
        "id" : 2,
        "type" : "mysql",
        "name" : "localhost Dev #2",
        "host" : "127.0.0.1",
        "db"   : "test",
        "user" : "root",
        "pass" : "",
        "charset" : "utf8mb4",
        "isArchived" : 0

    }

}